C:\Users\dea\IdeaProjects\s-pet-clinic\pet-clinic-data\src\main\java\guru\springframework\sfgpetclinic\services\CrudService.java
C:\Users\dea\IdeaProjects\s-pet-clinic\pet-clinic-data\src\main\java\guru\springframework\sfgpetclinic\model\Person.java
C:\Users\dea\IdeaProjects\s-pet-clinic\pet-clinic-data\src\main\java\guru\springframework\sfgpetclinic\services\map\OwnerServiceMap.java
C:\Users\dea\IdeaProjects\s-pet-clinic\pet-clinic-data\src\main\java\guru\springframework\sfgpetclinic\model\PetType.java
C:\Users\dea\IdeaProjects\s-pet-clinic\pet-clinic-data\src\main\java\guru\springframework\sfgpetclinic\model\Pet.java
C:\Users\dea\IdeaProjects\s-pet-clinic\pet-clinic-data\src\main\java\guru\springframework\sfgpetclinic\services\VetService.java
C:\Users\dea\IdeaProjects\s-pet-clinic\pet-clinic-data\src\main\java\guru\springframework\sfgpetclinic\model\Vet.java
C:\Users\dea\IdeaProjects\s-pet-clinic\pet-clinic-data\src\main\java\guru\springframework\sfgpetclinic\services\map\PerServiceMap.java
C:\Users\dea\IdeaProjects\s-pet-clinic\pet-clinic-data\src\main\java\guru\springframework\sfgpetclinic\model\Owner.java
C:\Users\dea\IdeaProjects\s-pet-clinic\pet-clinic-data\src\main\java\guru\springframework\sfgpetclinic\services\map\AbstractMapService.java
C:\Users\dea\IdeaProjects\s-pet-clinic\pet-clinic-data\src\main\java\guru\springframework\sfgpetclinic\services\PetService.java
C:\Users\dea\IdeaProjects\s-pet-clinic\pet-clinic-data\src\main\java\guru\springframework\sfgpetclinic\model\BaseEntity.java
C:\Users\dea\IdeaProjects\s-pet-clinic\pet-clinic-data\src\main\java\guru\springframework\sfgpetclinic\services\OwnerService.java
C:\Users\dea\IdeaProjects\s-pet-clinic\pet-clinic-data\src\main\java\guru\springframework\sfgpetclinic\services\map\VetServiceMap.java
